# 3ds Max Wavefront OBJ Exporter v0.97b - (c)2007 guruware
# File Created: 29.05.2018 15:38:56

newmtl GTP_EMan_Peter_20_Stt_Drvg_BlendMaterial
	Ns 10.0000
	Ni 1.5000
	d 1.0000
	Tr 0.0000
	Tf 1.0000 1.0000 1.0000 
	illum 2
	Ka 0.5880 0.5880 0.5880
	Kd 0.5000 0.5000 0.5000
	Ks 0.0000 0.0000 0.0000
	Ke 0.0000 0.0000 0.0000
	map_Ka GTP_EMan_Peter_20_Stt_Drvg_Adl_Ccs_Gry_dff.jpg
	map_Kd GTP_EMan_Peter_20_Stt_Drvg_Adl_Ccs_Gry_dff.jpg

newmtl GTP_EMan_Peter_20_Stt_Drvg_HairOutline
	Ns 10.0000
	Ni 1.5000
	d 1.0000
	Tr 0.0000
	Tf 1.0000 1.0000 1.0000 
	illum 2
	Ka 0.5880 0.5880 0.5880
	Kd 0.5000 0.5000 0.5000
	Ks 0.0000 0.0000 0.0000
	Ke 0.0000 0.0000 0.0000
	map_Ka GTP_EMan_Peter_20_Stt_Drvg_Adl_Ccs_Gry_hairtex.jpg
	map_Kd GTP_EMan_Peter_20_Stt_Drvg_Adl_Ccs_Gry_hairtex.jpg
	map_d GTP_EMan_Peter_20_Stt_Drvg_Adl_Ccs_Gry_HairMaskA.jpg

newmtl GTA_Eye_Lash
	Ns 10.0000
	Ni 1.5000
	d 1.0000
	Tr 0.0000
	Tf 1.0000 1.0000 1.0000 
	illum 2
	Ka 0.5880 0.5880 0.5880
	Kd 0.0000 0.0000 0.0000
	Ks 0.0000 0.0000 0.0000
	Ke 0.0000 0.0000 0.0000
	map_d GTA_EyeLash_Opacity.JPG
