<?xml version="1.0" encoding="utf-8" ?>
<svg xmlns="http://www.w3.org/2000/svg" xmlns:ev="http://www.w3.org/2001/xml-events" xmlns:ifc="http://www.ifcopenshell.org/ns" xmlns:xlink="http://www.w3.org/1999/xlink" baseProfile="full" data-scale="1/4&quot;=1'-0&quot;" height="625.0000794728596mm" id="root" version="1.1" viewBox="0 0 625.0000794728596 625.0000794728596" width="625.0000794728596mm">
  <defs/>
  <line class="GlobalId-3QYWHhuHb1wxafnFepKUBF IfcAnnotation PredefinedType-SECTION" x1="42.34870529174805" x2="521.515380859375" y1="170.8135986328125" y2="170.8139190673828"/>
  <use transform="rotate(3.831558063796755e-05, 42.34870529174805, 170.8135986328125)" x="42.34870529174805" xlink:href="#section-arrow" y="170.8135986328125"/>
  <use x="42.34870529174805" xlink:href="#section-tag" y="170.8135986328125"/>
  <text class="SECTION" dominant-baseline="middle" text-anchor="middle" x="42.34870529174805" y="168.3135986328125">-</text>
  <text class="SECTION" dominant-baseline="middle" text-anchor="middle" x="42.34870529174805" y="173.3135986328125">X</text>
  <use transform="rotate(3.831558063796755e-05, 521.515380859375, 170.8139190673828)" x="521.515380859375" xlink:href="#section-arrow" y="170.8139190673828"/>
  <use x="521.515380859375" xlink:href="#section-tag" y="170.8139190673828"/>
  <text class="SECTION" dominant-baseline="middle" text-anchor="middle" x="521.515380859375" y="168.3139190673828">-</text>
  <text class="SECTION" dominant-baseline="middle" text-anchor="middle" x="521.515380859375" y="173.3139190673828">X</text>
  <use transform="rotate(4.0981135020076506e-05, 244.94996643066406, 583.5968017578125)" x="244.94996643066406" xlink:href="#elevation-arrow" y="583.5968017578125"/>
  <use x="244.94996643066406" xlink:href="#elevation-tag" y="583.5968017578125"/>
  <text class="ELEVATION" dominant-baseline="middle" text-anchor="middle" x="244.94996643066406" y="581.0968017578125">-</text>
  <text class="ELEVATION" dominant-baseline="middle" text-anchor="middle" x="244.94996643066406" y="586.0968017578125">X</text>
  <use transform="rotate(-89.99996835353231, 718.0441284179688, 284.712158203125)" x="718.0441284179688" xlink:href="#elevation-arrow" y="284.712158203125"/>
  <use x="718.0441284179688" xlink:href="#elevation-tag" y="284.712158203125"/>
  <text class="ELEVATION" dominant-baseline="middle" text-anchor="middle" x="718.0441284179688" y="282.212158203125">-</text>
  <text class="ELEVATION" dominant-baseline="middle" text-anchor="middle" x="718.0441284179688" y="287.212158203125">X</text>
  <line class="GlobalId-22Cz6ulif9aPf$YJ6bzy0q IfcAnnotation PredefinedType-SECTION" x1="315.5561828613281" x2="315.5566101074219" y1="568.3129272460938" y2="-54.603816986083984"/>
  <use transform="rotate(-89.99996152334315, 315.5561828613281, 568.3129272460938)" x="315.5561828613281" xlink:href="#section-arrow" y="568.3129272460938"/>
  <use x="315.5561828613281" xlink:href="#section-tag" y="568.3129272460938"/>
  <text class="SECTION" dominant-baseline="middle" text-anchor="middle" x="315.5561828613281" y="565.8129272460938">-</text>
  <text class="SECTION" dominant-baseline="middle" text-anchor="middle" x="315.5561828613281" y="570.8129272460938">X</text>
  <use transform="rotate(-89.99996152334315, 315.5566101074219, -54.603816986083984)" x="315.5566101074219" xlink:href="#section-arrow" y="-54.603816986083984"/>
  <use x="315.5566101074219" xlink:href="#section-tag" y="-54.603816986083984"/>
  <text class="SECTION" dominant-baseline="middle" text-anchor="middle" x="315.5566101074219" y="-57.103816986083984">-</text>
  <text class="SECTION" dominant-baseline="middle" text-anchor="middle" x="315.5566101074219" y="-52.103816986083984">X</text>
  <line class="GlobalId-15NmLpMOn1aOufWT4DrkHY IfcAnnotation PredefinedType-SECTION" x1="629.3851928710938" x2="-199.7686309814453" y1="277.7602844238281" y2="277.7600402832031"/>
  <use transform="rotate(-179.99997768819966, 629.3851928710938, 277.7602844238281)" x="629.3851928710938" xlink:href="#section-arrow" y="277.7602844238281"/>
  <use x="629.3851928710938" xlink:href="#section-tag" y="277.7602844238281"/>
  <text class="SECTION" dominant-baseline="middle" text-anchor="middle" x="629.3851928710938" y="275.2602844238281">-</text>
  <text class="SECTION" dominant-baseline="middle" text-anchor="middle" x="629.3851928710938" y="280.2602844238281">X</text>
  <use transform="rotate(-179.99997768819966, -199.7686309814453, 277.7600402832031)" x="-199.7686309814453" xlink:href="#section-arrow" y="277.7600402832031"/>
  <use x="-199.7686309814453" xlink:href="#section-tag" y="277.7600402832031"/>
  <text class="SECTION" dominant-baseline="middle" text-anchor="middle" x="-199.7686309814453" y="275.2600402832031">-</text>
  <text class="SECTION" dominant-baseline="middle" text-anchor="middle" x="-199.7686309814453" y="280.2600402832031">X</text>
  <line class="GlobalId-1lSdhGg1rFkOatYyF2$Ezo IfcAnnotation PredefinedType-SECTION" x1="315.0465393066406" x2="315.0469055175781" y1="576.6019287109375" y2="3.685256004333496"/>
  <use transform="rotate(-89.99996152334315, 315.0465393066406, 576.6019287109375)" x="315.0465393066406" xlink:href="#section-arrow" y="576.6019287109375"/>
  <use x="315.0465393066406" xlink:href="#section-tag" y="576.6019287109375"/>
  <text class="SECTION" dominant-baseline="middle" text-anchor="middle" x="315.0465393066406" y="574.1019287109375">-</text>
  <text class="SECTION" dominant-baseline="middle" text-anchor="middle" x="315.0465393066406" y="579.1019287109375">X</text>
  <use transform="rotate(-89.99996152334315, 315.0469055175781, 3.685256004333496)" x="315.0469055175781" xlink:href="#section-arrow" y="3.685256004333496"/>
  <use x="315.0469055175781" xlink:href="#section-tag" y="3.685256004333496"/>
  <text class="SECTION" dominant-baseline="middle" text-anchor="middle" x="315.0469055175781" y="1.185256004333496">-</text>
  <text class="SECTION" dominant-baseline="middle" text-anchor="middle" x="315.0469055175781" y="6.185256004333496">X</text>
</svg>
