<?xml version="1.0" encoding="utf-8" ?>
<svg xmlns="http://www.w3.org/2000/svg" xmlns:ev="http://www.w3.org/2001/xml-events" xmlns:ifc="http://www.ifcopenshell.org/ns" xmlns:xlink="http://www.w3.org/1999/xlink" baseProfile="full" data-scale="3/16&quot;=1'-0&quot;" height="445.3125mm" id="root" version="1.1" viewBox="0 0 445.3125 445.3125" width="445.3125mm">
  <defs/>
  <text dominant-baseline="middle" style="font-size: 0;" text-anchor="middle" transform="translate(115.98155975341797, 22.029430389404297) rotate(-0.0)">
    <tspan class="GlobalId-3LFZ0r3bXEXO4v_FvgukAO IfcAnnotation PredefinedType-TEXT title" dy="0em" x="0" y="0">~ 136 SEATS</tspan>
  </text>
  <path class="GlobalId-0O4_fo3n9AzubeEqFt1ug_ IfcAnnotation PredefinedType-LINEWORK" d="M 83.90077948570251 27.914419770240784 L 147.8564441204071 27.914419770240784 L 147.85639941692352 14.663353562355042 L 83.90073478221893 14.663353562355042 L 83.90077948570251 27.914419770240784"/>
</svg>
