<?xml version="1.0" encoding="utf-8" ?>
<svg xmlns="http://www.w3.org/2000/svg" xmlns:ev="http://www.w3.org/2001/xml-events" xmlns:ifc="http://www.ifcopenshell.org/ns" xmlns:xlink="http://www.w3.org/1999/xlink" baseProfile="full" data-scale="1/4&quot;=1'-0&quot;" height="737.5000317891438mm" id="root" version="1.1" viewBox="0 0 737.5000317891438 737.5000317891438" width="737.5000317891438mm">
  <defs/>
  <path class="GlobalId-3WD$E7YuL07f5St9Ik297T IfcAnnotation PredefinedType-FALL" d="M -355.2567958831787 1024.9955654144287 L -344.85697746276855 1024.9955654144287"/>
  <text class="RADIUS" dominant-baseline="middle" text-anchor="middle" x="-357.2568054199219" y="1024.99560546875">0°</text>
  <path class="GlobalId-0DuwCcRDP7VfxHORAQpgvv IfcAnnotation PredefinedType-FALL" d="M -412.87056605021155 1059.796651204427 L -412.87056605021155 1049.3969122568765"/>
  <text class="RADIUS" dominant-baseline="middle" text-anchor="middle" x="-412.8705749511719" y="1061.796630859375">0°</text>
  <path class="GlobalId-3oZ8egqdr29AAXXoGJzckw IfcAnnotation PredefinedType-FALL" d="M -288.26169172922766 1007.5653791427611 L -288.26169172922766 997.1656004587809"/>
  <text class="RADIUS" dominant-baseline="middle" text-anchor="middle" x="-288.2616882324219" y="1009.5653686523438">0°</text>
</svg>
