<?xml version="1.0" encoding="utf-8" ?>
<svg xmlns="http://www.w3.org/2000/svg" xmlns:ev="http://www.w3.org/2001/xml-events" xmlns:ifc="http://www.ifcopenshell.org/ns" xmlns:xlink="http://www.w3.org/1999/xlink" baseProfile="full" data-scale="1/8&quot;=1'-0&quot;" height="317.7083333333333mm" id="root" version="1.1" viewBox="0 0 317.7083333333333 317.7083333333333" width="317.7083333333333mm">
  <defs/>
  <path class="GlobalId-2an0SKa8LFORc$R7NwCe_Y IfcAnnotation PredefinedType-SECTIONLEVEL" d="M 210.4166398445765 158.85415376726067 L 107.2916438182195 158.85415376726067"/>
  <text class="SECTIONLEVEL" dominant-baseline="baseline" text-anchor="start" x="210.41664123535156" y="155.35415649414062">RL +0&quot;</text>
  <text dominant-baseline="baseline" text-anchor="start" x="210.41664123535156" y="150.35415649414062">My Storey</text>
  <path class="GlobalId-2pYyHcZJnBZwYNHnR5axzW IfcAnnotation PredefinedType-SECTIONLEVEL" d="M 419.27079359690345 158.85415376726067 L -101.56251986821492 158.85415376726186"/>
  <text class="SECTIONLEVEL" dominant-baseline="baseline" text-anchor="start" x="419.2707824707031" y="155.35415649414062">RL +0&quot;</text>
  <line class="GlobalId-01QU$Xfcz5nxk_BWGuXo6N IfcAnnotation PredefinedType-SECTION" x1="159.5356903076172" x2="159.53567504882812" y1="85.06827545166016" y2="188.1900634765625"/>
  <use transform="rotate(90.00000933466734, 159.5356903076172, 85.06827545166016)" x="159.5356903076172" xlink:href="#section-arrow" y="85.06827545166016"/>
  <use x="159.5356903076172" xlink:href="#section-tag" y="85.06827545166016"/>
  <text class="SECTION" dominant-baseline="middle" text-anchor="middle" x="159.5356903076172" y="82.56827545166016">-</text>
  <text class="SECTION" dominant-baseline="middle" text-anchor="middle" x="159.5356903076172" y="87.56827545166016">X</text>
  <use transform="rotate(90.00000933466734, 159.53567504882812, 188.1900634765625)" x="159.53567504882812" xlink:href="#section-arrow" y="188.1900634765625"/>
  <use x="159.53567504882812" xlink:href="#section-tag" y="188.1900634765625"/>
  <text class="SECTION" dominant-baseline="middle" text-anchor="middle" x="159.53567504882812" y="185.6900634765625">-</text>
  <text class="SECTION" dominant-baseline="middle" text-anchor="middle" x="159.53567504882812" y="190.6900634765625">X</text>
</svg>
