<?xml version="1.0" encoding="UTF-8" standalone="no"?>
<svg
   id="root"
   version="1.1"
   width="863.59998mm"
   height="558.79999mm"
   viewBox="0 0 863.59998 558.79999"
   sodipodi:docname="A200 - ELEVATIONS.svg"
   inkscape:version="1.2 (dc2aedaf03, 2022-05-15)"
   xmlns:inkscape="http://www.inkscape.org/namespaces/inkscape"
   xmlns:sodipodi="http://sodipodi.sourceforge.net/DTD/sodipodi-0.dtd"
   xmlns:xlink="http://www.w3.org/1999/xlink"
   xmlns="http://www.w3.org/2000/svg"
   xmlns:svg="http://www.w3.org/2000/svg">
  <defs
     id="defs152" />
  <sodipodi:namedview
     id="namedview150"
     pagecolor="#505050"
     bordercolor="#ffffff"
     borderopacity="1"
     inkscape:showpageshadow="0"
     inkscape:pageopacity="0"
     inkscape:pagecheckerboard="1"
     inkscape:deskcolor="#505050"
     inkscape:document-units="mm"
     showgrid="false"
     inkscape:zoom="0.38541668"
     inkscape:cx="1632"
     inkscape:cy="1056"
     inkscape:window-width="1920"
     inkscape:window-height="1017"
     inkscape:window-x="-8"
     inkscape:window-y="-8"
     inkscape:window-maximized="1"
     inkscape:current-layer="root" />
  <g
     data-type="titleblock"
     id="g131">
    <image
       xlink:href="titleblocks%5C22x34.svg"
       x="0"
       y="0"
       width="863.59998"
       height="558.79999"
       id="image129" />
  </g>
  <g
     data-type="drawing"
     data-id="1338900"
     data-drawing="3AiJtXN2b3k91xB99Dz1Kc"
     id="g139">
    <image
       data-type="background"
       xlink:href="..%5Cdrawings%5CELEVATION%20-%20SOUTH-underlay.png"
       x="30.0"
       y="30.0"
       width="618.7500158945719"
       height="94.25625242127313"
       id="image133" />
    <image
       data-type="foreground"
       xlink:href="..%5Cdrawings%5CELEVATION%20-%20SOUTH.svg"
       x="30.0"
       y="30.0"
       width="618.7500158945719"
       height="94.25625242127313"
       id="image135" />
    <image
       data-type="view-title"
       xlink:href="assets%5Cview-title.svg"
       x="30.0"
       y="129.25625242127313"
       width="200.0"
       height="10.0"
       id="image137" />
  </g>
  <g
     data-type="drawing"
     data-id="1338901"
     data-drawing="0PmnFh195EYA4gDriaJPRs"
     id="g147"
     transform="translate(0,147.59459)">
    <image
       data-type="background"
       xlink:href="..%5Cdrawings%5CELEVATION%20-%20EAST-underlay.png"
       x="30"
       y="30"
       width="606.25006"
       height="95.181259"
       id="image141" />
    <image
       data-type="foreground"
       xlink:href="..%5Cdrawings%5CELEVATION%20-%20EAST.svg"
       x="30"
       y="30"
       width="606.25006"
       height="95.181259"
       id="image143" />
    <image
       data-type="view-title"
       xlink:href="assets%5Cview-title.svg"
       x="30"
       y="130.18126"
       width="200"
       height="10"
       id="image145" />
  </g>
</svg>
